09:57:49 765	ERROR:IsSingleDevice->No device!
09:57:49 812	ERROR:RK_ReadVendorInfo->IsSingleDevice failed!
09:57:53 703	ERROR:IsSingleDevice->No device!
09:57:53 703	ERROR:RK_ReadVendorInfo->IsSingleDevice failed!
09:57:55 437	ERROR:IsSingleDevice->No device!
09:57:55 437	ERROR:RK_ReadVendorInfo->IsSingleDevice failed!
11:58:24 656	ERROR:RK_ReadVendorInfo->Check vendor sector tag failed!
11:58:26 734	ERROR:RK_ReadVendorInfo->Check vendor sector tag failed!
11:58:30 375	ERROR:RK_ReadVendorInfo->Check vendor sector tag failed!
11:58:32 281	ERROR:RK_ReadVendorInfo->Check vendor sector tag failed!
11:58:47 546	ERROR:RK_ReadVendorInfo->Check vendor sector tag failed!
12:00:10 046	ERROR:RK_ReadVendorInfo->Check vendor sector tag failed!
12:00:12 203	ERROR:RK_ReadVendorInfo->Check vendor sector tag failed!
12:00:15 890	ERROR:RK_ReadVendorInfo->Check vendor sector tag failed!
12:00:18 296	ERROR:RK_ReadVendorInfo->Check vendor sector tag failed!
